// Example particle systems

// Exudes greeny particles which float upwards
particle_system Examples/GreenyNimbus
{
    material        Examples/FlarePointSprite
    particle_width	35
    particle_height	35
    cull_each       false
	cull_each       false
    quota           5000
    billboard_type  point
    
    // Area emitter
    emitter Box
    {
        angle           30
        emission_rate   30
        time_to_live    1
        direction       0 1 0
        velocity    	0
        colour_range_start  1 1 0
        colour_range_end    0.3 1 0.3
        width           60
        height          60
        depth           60
    }

    // Make em float upwards
    affector LinearForce
    {
        force_vector      0 100 0
        force_application add
    }

    // Fader
    affector ColourFader
    {
        red -0.25
        green -0.25
        blue -0.25
    }
}

// A sparkly purple fountain
particle_system Examples/PurpleFountain
{
    material        Examples/Flare2
    particle_width  2
    particle_height 2
    cull_each       false
    quota           10000
    billboard_type  oriented_self
    
    // Area emitter
    emitter Point
    {
        angle           15
        emission_rate   75
        time_to_live    3
        direction       0 1 0
        velocity_min    15
        velocity_max    25
        colour_range_start  0 0 0
        colour_range_end    1 1 1
    }

    // Gravity
    affector LinearForce
    {
        force_vector      0 -50 0
        force_application add
    }

    // Fader
    affector ColourFader
    {
        red -0.25
        green -0.25
        blue -0.25
    }
}


// A jet engine (of sorts)
particle_system Examples/JetEngine1
{
	material 		Examples/Flare
	particle_width 	5
	particle_height	5
	cull_each		false
	quota			500
	billboard_type	point

	emitter Point
	{
		angle 5
		emission_rate 100
        time_to_live    1
        direction       0 1 0
        velocity_min    10
        velocity_max    50
        colour_range_start  1 1 0.5
        colour_range_end    1 0.8 0.3
		
	}
	affector ColourFader
	{
		red -0.25
		green -1
		blue -1
	}
	
}
particle_system Examples/JetEngine2
{
	material 		Examples/Flare
	particle_width 	5
	particle_height	5
	cull_each		false
	quota			200
	billboard_type	point

	emitter Point
	{
		angle 3
		emission_rate 100
        time_to_live    1
        direction       0 0 0
        velocity_min    350
        velocity_max    400
        colour_range_start  0.5 1 1
        colour_range_end    0.3 0.8 1
		
	}
	affector ColourFader
	{
		red -1
		green -1
		blue -0.5
	}
	
}

